625,0,0
1250,0,0
1875,0,0
2500,0,0
3125,0,0
3750,0,0
4375,0,0
5000,0,0
625,0.25,0
1250,0.25,0
1875,0.25,0
2500,0.25,0
3125,0.25,0
3750,0.25,0
4375,0.25,0
5000,0.25,0
625,0.5,0
1250,0.5,0
1875,0.5,0
2500,0.5,0
3125,0.5,0
3750,0.5,0
4375,0.5,0
5000,0.5,0
625,0.75,0
1250,0.75,0
1875,0.75,0
2500,0.75,0
3125,0.75,0
3750,0.75,0
4375,0.75,0
5000,0.75,0
625,1,0
1250,1,0
1875,1,0
2500,1,0
3125,1,0
3750,1,0
4375,1,0
5000,1,0
625,1.25,0
1250,1.25,0
1875,1.25,0
2500,1.25,0
3125,1.25,0
3750,1.25,0
4375,1.25,0
5000,1.25,0
625,1.5,0
1250,1.5,0
1875,1.5,0
2500,1.5,0
3125,1.5,0
3750,1.5,0
4375,1.5,0
5000,1.5,0
625,1.75,0
1250,1.75,0
1875,1.75,0
2500,1.75,0
3125,1.75,0
3750,1.75,0
4375,1.75,0
5000,1.75,0
625,0,0.25
1250,0,0.25
1875,0,0.25
2500,0,0.25
3125,0,0.25
3750,0,0.25
4375,0,0.25
5000,0,0.25
625,0.25,0.25
1250,0.25,0.25
1875,0.25,0.25
2500,0.25,0.25
3125,0.25,0.25
3750,0.25,0.25
4375,0.25,0.25
5000,0.25,0.25
625,0.5,0.25
1250,0.5,0.25
1875,0.5,0.25
2500,0.5,0.25
3125,0.5,0.25
3750,0.5,0.25
4375,0.5,0.25
5000,0.5,0.25
625,0.75,0.25
1250,0.75,0.25
1875,0.75,0.25
2500,0.75,0.25
3125,0.75,0.25
3750,0.75,0.25
4375,0.75,0.25
5000,0.75,0.25
625,1,0.25
1250,1,0.25
1875,1,0.25
2500,1,0.25
3125,1,0.25
3750,1,0.25
4375,1,0.25
5000,1,0.25
625,1.25,0.25
1250,1.25,0.25
1875,1.25,0.25
2500,1.25,0.25
3125,1.25,0.25
3750,1.25,0.25
4375,1.25,0.25
5000,1.25,0.25
625,1.5,0.25
1250,1.5,0.25
1875,1.5,0.25
2500,1.5,0.25
3125,1.5,0.25
3750,1.5,0.25
4375,1.5,0.25
5000,1.5,0.25
625,1.75,0.25
1250,1.75,0.25
1875,1.75,0.25
2500,1.75,0.25
3125,1.75,0.25
3750,1.75,0.25
4375,1.75,0.25
5000,1.75,0.25
625,0,0.5
1250,0,0.5
1875,0,0.5
2500,0,0.5
3125,0,0.5
3750,0,0.5
4375,0,0.5
5000,0,0.5
625,0.25,0.5
1250,0.25,0.5
1875,0.25,0.5
2500,0.25,0.5
3125,0.25,0.5
3750,0.25,0.5
4375,0.25,0.5
5000,0.25,0.5
625,0.5,0.5
1250,0.5,0.5
1875,0.5,0.5
2500,0.5,0.5
3125,0.5,0.5
3750,0.5,0.5
4375,0.5,0.5
5000,0.5,0.5
625,0.75,0.5
1250,0.75,0.5
1875,0.75,0.5
2500,0.75,0.5
3125,0.75,0.5
3750,0.75,0.5
4375,0.75,0.5
5000,0.75,0.5
625,1,0.5
1250,1,0.5
1875,1,0.5
2500,1,0.5
3125,1,0.5
3750,1,0.5
4375,1,0.5
5000,1,0.5
625,1.25,0.5
1250,1.25,0.5
1875,1.25,0.5
2500,1.25,0.5
3125,1.25,0.5
3750,1.25,0.5
4375,1.25,0.5
5000,1.25,0.5
625,1.5,0.5
1250,1.5,0.5
1875,1.5,0.5
2500,1.5,0.5
3125,1.5,0.5
3750,1.5,0.5
4375,1.5,0.5
5000,1.5,0.5
625,1.75,0.5
1250,1.75,0.5
1875,1.75,0.5
2500,1.75,0.5
3125,1.75,0.5
3750,1.75,0.5
4375,1.75,0.5
5000,1.75,0.5
625,0,0.75
1250,0,0.75
1875,0,0.75
2500,0,0.75
3125,0,0.75
3750,0,0.75
4375,0,0.75
5000,0,0.75
625,0.25,0.75
1250,0.25,0.75
1875,0.25,0.75
2500,0.25,0.75
3125,0.25,0.75
3750,0.25,0.75
4375,0.25,0.75
5000,0.25,0.75
625,0.5,0.75
1250,0.5,0.75
1875,0.5,0.75
2500,0.5,0.75
3125,0.5,0.75
3750,0.5,0.75
4375,0.5,0.75
5000,0.5,0.75
625,0.75,0.75
1250,0.75,0.75
1875,0.75,0.75
2500,0.75,0.75
3125,0.75,0.75
3750,0.75,0.75
4375,0.75,0.75
5000,0.75,0.75
625,1,0.75
1250,1,0.75
1875,1,0.75
2500,1,0.75
3125,1,0.75
3750,1,0.75
4375,1,0.75
5000,1,0.75
625,1.25,0.75
1250,1.25,0.75
1875,1.25,0.75
2500,1.25,0.75
3125,1.25,0.75
3750,1.25,0.75
4375,1.25,0.75
5000,1.25,0.75
625,1.5,0.75
1250,1.5,0.75
1875,1.5,0.75
2500,1.5,0.75
3125,1.5,0.75
3750,1.5,0.75
4375,1.5,0.75
5000,1.5,0.75
625,1.75,0.75
1250,1.75,0.75
1875,1.75,0.75
2500,1.75,0.75
3125,1.75,0.75
3750,1.75,0.75
4375,1.75,0.75
5000,1.75,0.75
625,0,1
1250,0,1
1875,0,1
2500,0,1
3125,0,1
3750,0,1
4375,0,1
5000,0,1
625,0.25,1
1250,0.25,1
1875,0.25,1
2500,0.25,1
3125,0.25,1
3750,0.25,1
4375,0.25,1
5000,0.25,1
625,0.5,1
1250,0.5,1
1875,0.5,1
2500,0.5,1
3125,0.5,1
3750,0.5,1
4375,0.5,1
5000,0.5,1
625,0.75,1
1250,0.75,1
1875,0.75,1
2500,0.75,1
3125,0.75,1
3750,0.75,1
4375,0.75,1
5000,0.75,1
625,1,1
1250,1,1
1875,1,1
2500,1,1
3125,1,1
3750,1,1
4375,1,1
5000,1,1
625,1.25,1
1250,1.25,1
1875,1.25,1
2500,1.25,1
3125,1.25,1
3750,1.25,1
4375,1.25,1
5000,1.25,1
625,1.5,1
1250,1.5,1
1875,1.5,1
2500,1.5,1
3125,1.5,1
3750,1.5,1
4375,1.5,1
5000,1.5,1
625,1.75,1
1250,1.75,1
1875,1.75,1
2500,1.75,1
3125,1.75,1
3750,1.75,1
4375,1.75,1
5000,1.75,1
625,0,1.25
1250,0,1.25
1875,0,1.25
2500,0,1.25
3125,0,1.25
3750,0,1.25
4375,0,1.25
5000,0,1.25
625,0.25,1.25
1250,0.25,1.25
1875,0.25,1.25
2500,0.25,1.25
3125,0.25,1.25
3750,0.25,1.25
4375,0.25,1.25
5000,0.25,1.25
625,0.5,1.25
1250,0.5,1.25
1875,0.5,1.25
2500,0.5,1.25
3125,0.5,1.25
3750,0.5,1.25
4375,0.5,1.25
5000,0.5,1.25
625,0.75,1.25
1250,0.75,1.25
1875,0.75,1.25
2500,0.75,1.25
3125,0.75,1.25
3750,0.75,1.25
4375,0.75,1.25
5000,0.75,1.25
625,1,1.25
1250,1,1.25
1875,1,1.25
2500,1,1.25
3125,1,1.25
3750,1,1.25
4375,1,1.25
5000,1,1.25
625,1.25,1.25
1250,1.25,1.25
1875,1.25,1.25
2500,1.25,1.25
3125,1.25,1.25
3750,1.25,1.25
4375,1.25,1.25
5000,1.25,1.25
625,1.5,1.25
1250,1.5,1.25
1875,1.5,1.25
2500,1.5,1.25
3125,1.5,1.25
3750,1.5,1.25
4375,1.5,1.25
5000,1.5,1.25
625,1.75,1.25
1250,1.75,1.25
1875,1.75,1.25
2500,1.75,1.25
3125,1.75,1.25
3750,1.75,1.25
4375,1.75,1.25
5000,1.75,1.25
625,0,1.5
1250,0,1.5
1875,0,1.5
2500,0,1.5
3125,0,1.5
3750,0,1.5
4375,0,1.5
5000,0,1.5
625,0.25,1.5
1250,0.25,1.5
1875,0.25,1.5
2500,0.25,1.5
3125,0.25,1.5
3750,0.25,1.5
4375,0.25,1.5
5000,0.25,1.5
625,0.5,1.5
1250,0.5,1.5
1875,0.5,1.5
2500,0.5,1.5
3125,0.5,1.5
3750,0.5,1.5
4375,0.5,1.5
5000,0.5,1.5
625,0.75,1.5
1250,0.75,1.5
1875,0.75,1.5
2500,0.75,1.5
3125,0.75,1.5
3750,0.75,1.5
4375,0.75,1.5
5000,0.75,1.5
625,1,1.5
1250,1,1.5
1875,1,1.5
2500,1,1.5
3125,1,1.5
3750,1,1.5
4375,1,1.5
5000,1,1.5
625,1.25,1.5
1250,1.25,1.5
1875,1.25,1.5
2500,1.25,1.5
3125,1.25,1.5
3750,1.25,1.5
4375,1.25,1.5
5000,1.25,1.5
625,1.5,1.5
1250,1.5,1.5
1875,1.5,1.5
2500,1.5,1.5
3125,1.5,1.5
3750,1.5,1.5
4375,1.5,1.5
5000,1.5,1.5
625,1.75,1.5
1250,1.75,1.5
1875,1.75,1.5
2500,1.75,1.5
3125,1.75,1.5
3750,1.75,1.5
4375,1.75,1.5
5000,1.75,1.5
625,0,1.75
1250,0,1.75
1875,0,1.75
2500,0,1.75
3125,0,1.75
3750,0,1.75
4375,0,1.75
5000,0,1.75
625,0.25,1.75
1250,0.25,1.75
1875,0.25,1.75
2500,0.25,1.75
3125,0.25,1.75
3750,0.25,1.75
4375,0.25,1.75
5000,0.25,1.75
625,0.5,1.75
1250,0.5,1.75
1875,0.5,1.75
2500,0.5,1.75
3125,0.5,1.75
3750,0.5,1.75
4375,0.5,1.75
5000,0.5,1.75
625,0.75,1.75
1250,0.75,1.75
1875,0.75,1.75
2500,0.75,1.75
3125,0.75,1.75
3750,0.75,1.75
4375,0.75,1.75
5000,0.75,1.75
625,1,1.75
1250,1,1.75
1875,1,1.75
2500,1,1.75
3125,1,1.75
3750,1,1.75
4375,1,1.75
5000,1,1.75
625,1.25,1.75
1250,1.25,1.75
1875,1.25,1.75
2500,1.25,1.75
3125,1.25,1.75
3750,1.25,1.75
4375,1.25,1.75
5000,1.25,1.75
625,1.5,1.75
1250,1.5,1.75
1875,1.5,1.75
2500,1.5,1.75
3125,1.5,1.75
3750,1.5,1.75
4375,1.5,1.75
5000,1.5,1.75
625,1.75,1.75
1250,1.75,1.75
1875,1.75,1.75
2500,1.75,1.75
3125,1.75,1.75
3750,1.75,1.75
4375,1.75,1.75
5000,1.75,1.75
