35,-20,0,0,0,0
27,-12,8,8,8,8
19,-4,16,0,16,16
11,-12,24,8,8,24
19,-4,32,16,16,32
11,-12,40,24,24,24
3,-20,32,16,32,32
-5,-12,24,8,40,40
-13,-4,32,0,48,48
-21,-12,40,-8,56,40
-29,-20,48,-16,64,32
-37,-12,40,-24,72,40
-45,-4,32,-32,80,32
-53,4,24,-40,88,24
-61,12,32,-48,96,32
-69,20,24,-56,88,40
-77,28,32,-64,80,48
-85,36,40,-56,88,56
-93,28,48,-48,80,64
140,-20,0,0,0,0
