﻿-1.5,-3,0,-0.06,-0.03
-1.5,-1.5,-0.015,-0.045,-0.03
-1.5,-0.75,-0.015,-0.045,-0.03
-1.5,-2.25,0,-0.045,-0.03
0,-2.25,0,-0.045,-0.03
1.5,-1.5,0,-0.045,-0.03
-1.5,-2.25,0.015,-0.045,-0.03
0,-2.25,0.015,-0.045,-0.03
-1.5,-1.5,-0.015,-0.03,-0.03
-1.5,-0.75,-0.015,-0.03,-0.03
-1.5,0,-0.015,-0.03,-0.03
-1.5,0.75,-0.015,-0.03,-0.03
-1.5,-2.25,0,-0.03,-0.03
-1.5,-1.5,0,-0.03,-0.03
-1.5,-0.75,0,-0.03,-0.03
-1.5,0,0,-0.03,-0.03
0.75,0,0,-0.03,-0.03
-2.25,0.75,0,-0.03,-0.03
0,0.75,0,-0.03,-0.03
0,-2.25,0.015,-0.03,-0.03
-1.5,-1.5,0.015,-0.03,-0.03
-1.5,-0.75,0.015,-0.03,-0.03
-1.5,0.75,-0.015,-0.015,-0.03
-1.5,-1.5,0,-0.015,-0.03
0,-1.5,0,-0.015,-0.03
-1.5,-0.75,0,-0.015,-0.03
-1.5,0,0,-0.015,-0.03
-2.25,0.75,0,-0.015,-0.03
-1.5,0.75,0,-0.015,-0.03
0,0.75,0,-0.015,-0.03
0.75,-1.5,0.015,-0.015,-0.03
-1.5,0,0.015,-0.015,-0.03
0.75,0,0.015,-0.015,-0.03
-1.5,0.75,0.015,-0.015,-0.03
-1.5,-0.75,-0.015,0,-0.03
-1.5,-1.5,0,0,-0.03
-1.5,-0.75,0,0,-0.03
-1.5,0,0,0,-0.03
-1.5,0.75,0,0,-0.03
-1.5,0.75,-0.015,0.015,-0.03
-1.5,-2.25,0,0.015,-0.03
-1.5,-1.5,0,0.015,-0.03
0.75,-1.5,0,0.015,-0.03
-1.5,-0.75,0,0.015,-0.03
-1.5,0,0,0.015,-0.03
-1.5,0.75,0,0.015,-0.03
0,0.75,0,0.015,-0.03
0.75,0.75,0,0.015,-0.03
-1.5,0,0,0.03,-0.03
1.5,0,0,0.03,-0.03
-1.5,-0.75,0.015,0.03,-0.03
-2.25,0,0.015,0.03,-0.03
-1.5,-2.25,-0.015,-0.06,-0.015
-0.75,-2.25,-0.015,-0.06,-0.015
-1.5,-1.5,-0.015,-0.06,-0.015
-1.5,-2.25,0,-0.06,-0.015
-0.75,-2.25,0,-0.06,-0.015
0,-2.25,0,-0.06,-0.015
-1.5,-1.5,0,-0.06,-0.015
-1.5,-3,0.015,-0.06,-0.015
-0.75,-3,0.015,-0.06,-0.015
-1.5,-2.25,0.015,-0.06,-0.015
-0.75,-2.25,0.015,-0.06,-0.015
0,-0.75,-0.03,-0.045,-0.015
-1.5,-2.25,-0.015,-0.045,-0.015
-0.75,-2.25,-0.015,-0.045,-0.015
-1.5,-1.5,-0.015,-0.045,-0.015
-0.75,-1.5,-0.015,-0.045,-0.015
0,-1.5,-0.015,-0.045,-0.015
-1.5,-0.75,-0.015,-0.045,-0.015
-0.75,-0.75,-0.015,-0.045,-0.015
-1.5,0,-0.015,-0.045,-0.015
-1.5,-2.25,0,-0.045,-0.015
-0.75,-2.25,0,-0.045,-0.015
0,-2.25,0,-0.045,-0.015
-1.5,-1.5,0,-0.045,-0.015
-0.75,-1.5,0,-0.045,-0.015
0,-1.5,0,-0.045,-0.015
0.75,-1.5,0,-0.045,-0.015
-0.75,-0.75,0,-0.045,-0.015
0,-0.75,0,-0.045,-0.015
-1.5,0,0,-0.045,-0.015
-0.75,0,0,-0.045,-0.015
-1.5,-2.25,0.015,-0.045,-0.015
-0.75,-2.25,0.015,-0.045,-0.015
-0.75,-1.5,0.015,-0.045,-0.015
0,-1.5,0.015,-0.045,-0.015
-0.75,-0.75,0.015,-0.045,-0.015
1.5,-0.75,0.015,-0.045,-0.015
-1.5,0,0.015,-0.045,-0.015
-0.75,-1.5,-0.015,-0.03,-0.015
0,-1.5,-0.015,-0.03,-0.015
-1.5,-0.75,-0.015,-0.03,-0.015
-0.75,-0.75,-0.015,-0.03,-0.015
0,-0.75,-0.015,-0.03,-0.015
-1.5,0,-0.015,-0.03,-0.015
-0.75,0,-0.015,-0.03,-0.015
0,0,-0.015,-0.03,-0.015
-1.5,0.75,-0.015,-0.03,-0.015
-0.75,0.75,-0.015,-0.03,-0.015
0,0.75,-0.015,-0.03,-0.015
-1.5,-2.25,0,-0.03,-0.015
-0.75,-2.25,0,-0.03,-0.015
0,-2.25,0,-0.03,-0.015
-1.5,-1.5,0,-0.03,-0.015
-0.75,-1.5,0,-0.03,-0.015
0,-1.5,0,-0.03,-0.015
-1.5,-0.75,0,-0.03,-0.015
-0.75,-0.75,0,-0.03,-0.015
0,-0.75,0,-0.03,-0.015
0.75,-0.75,0,-0.03,-0.015
-1.5,0,0,-0.03,-0.015
-0.75,0,0,-0.03,-0.015
0,0,0,-0.03,-0.015
0.75,0,0,-0.03,-0.015
-1.5,0.75,0,-0.03,-0.015
-0.75,0.75,0,-0.03,-0.015
0,0.75,0,-0.03,-0.015
-1.5,-2.25,0.015,-0.03,-0.015
-0.75,-2.25,0.015,-0.03,-0.015
0,-2.25,0.015,-0.03,-0.015
-1.5,-1.5,0.015,-0.03,-0.015
-0.75,-1.5,0.015,-0.03,-0.015
0,-1.5,0.015,-0.03,-0.015
0.75,-1.5,0.015,-0.03,-0.015
-1.5,-0.75,0.015,-0.03,-0.015
-0.75,-0.75,0.015,-0.03,-0.015
0,-0.75,0.015,-0.03,-0.015
-1.5,0,0.015,-0.03,-0.015
-0.75,0,0.015,-0.03,-0.015
0,0,0.015,-0.03,-0.015
-1.5,-2.25,-0.015,-0.015,-0.015
-0.75,-2.25,-0.015,-0.015,-0.015
0,-2.25,-0.015,-0.015,-0.015
-1.5,-1.5,-0.015,-0.015,-0.015
-0.75,-1.5,-0.015,-0.015,-0.015
0,-1.5,-0.015,-0.015,-0.015
-1.5,-0.75,-0.015,-0.015,-0.015
-0.75,-0.75,-0.015,-0.015,-0.015
0,-0.75,-0.015,-0.015,-0.015
0.75,-0.75,-0.015,-0.015,-0.015
-1.5,0,-0.015,-0.015,-0.015
-0.75,0,-0.015,-0.015,-0.015
0,0,-0.015,-0.015,-0.015
0.75,0,-0.015,-0.015,-0.015
-1.5,0.75,-0.015,-0.015,-0.015
-0.75,0.75,-0.015,-0.015,-0.015
0,0.75,-0.015,-0.015,-0.015
-1.5,-2.25,0,-0.015,-0.015
-0.75,-2.25,0,-0.015,-0.015
0,-2.25,0,-0.015,-0.015
-1.5,-1.5,0,-0.015,-0.015
-0.75,-1.5,0,-0.015,-0.015
0,-1.5,0,-0.015,-0.015
-1.5,-0.75,0,-0.015,-0.015
-0.75,-0.75,0,-0.015,-0.015
0,-0.75,0,-0.015,-0.015
0.75,-0.75,0,-0.015,-0.015
-1.5,0,0,-0.015,-0.015
-0.75,0,0,-0.015,-0.015
0,0,0,-0.015,-0.015
0.75,0,0,-0.015,-0.015
-1.5,0.75,0,-0.015,-0.015
-0.75,0.75,0,-0.015,-0.015
0,0.75,0,-0.015,-0.015
-1.5,-2.25,0.015,-0.015,-0.015
-0.75,-2.25,0.015,-0.015,-0.015
0,-2.25,0.015,-0.015,-0.015
-1.5,-1.5,0.015,-0.015,-0.015
-0.75,-1.5,0.015,-0.015,-0.015
0,-1.5,0.015,-0.015,-0.015
0.75,-1.5,0.015,-0.015,-0.015
-1.5,-0.75,0.015,-0.015,-0.015
-0.75,-0.75,0.015,-0.015,-0.015
0,-0.75,0.015,-0.015,-0.015
0.75,-0.75,0.015,-0.015,-0.015
1.5,-0.75,0.015,-0.015,-0.015
-1.5,0,0.015,-0.015,-0.015
-0.75,0,0.015,-0.015,-0.015
0,0,0.015,-0.015,-0.015
-0.75,-0.75,0.03,-0.015,-0.015
0,-0.75,0.03,-0.015,-0.015
-2.25,-2.25,-0.015,0,-0.015
-1.5,-2.25,-0.015,0,-0.015
-0.75,-2.25,-0.015,0,-0.015
0,-2.25,-0.015,0,-0.015
-1.5,-1.5,-0.015,0,-0.015
-0.75,-1.5,-0.015,0,-0.015
0,-1.5,-0.015,0,-0.015
-1.5,-0.75,-0.015,0,-0.015
-0.75,-0.75,-0.015,0,-0.015
0,-0.75,-0.015,0,-0.015
0.75,-0.75,-0.015,0,-0.015
1.5,-0.75,-0.015,0,-0.015
-1.5,0,-0.015,0,-0.015
-0.75,0,-0.015,0,-0.015
0,0,-0.015,0,-0.015
0.75,0,-0.015,0,-0.015
1.5,0,-0.015,0,-0.015
-1.5,0.75,-0.015,0,-0.015
-0.75,0.75,-0.015,0,-0.015
0,0.75,-0.015,0,-0.015
-2.25,-2.25,0,0,-0.015
-1.5,-2.25,0,0,-0.015
-0.75,-2.25,0,0,-0.015
0,-2.25,0,0,-0.015
-1.5,-1.5,0,0,-0.015
-0.75,-1.5,0,0,-0.015
0,-1.5,0,0,-0.015
0.75,-1.5,0,0,-0.015
-1.5,-0.75,0,0,-0.015
-0.75,-0.75,0,0,-0.015
0,-0.75,0,0,-0.015
0.75,-0.75,0,0,-0.015
1.5,-0.75,0,0,-0.015
-1.5,0,0,0,-0.015
-0.75,0,0,0,-0.015
0,0,0,0,-0.015
0.75,0,0,0,-0.015
1.5,0,0,0,-0.015
-1.5,-2.25,0.015,0,-0.015
-0.75,-2.25,0.015,0,-0.015
0,-2.25,0.015,0,-0.015
-1.5,-1.5,0.015,0,-0.015
-0.75,-1.5,0.015,0,-0.015
0,-1.5,0.015,0,-0.015
0.75,-1.5,0.015,0,-0.015
-1.5,-0.75,0.015,0,-0.015
-0.75,-0.75,0.015,0,-0.015
0,-0.75,0.015,0,-0.015
0.75,-0.75,0.015,0,-0.015
-1.5,0,0.015,0,-0.015
-0.75,0,0.015,0,-0.015
0,0,0.015,0,-0.015
0,-0.75,0.03,0,-0.015
-0.75,0,0.03,0,-0.015
0,0,0.03,0,-0.015
-1.5,-2.25,-0.015,0.015,-0.015
-0.75,-2.25,-0.015,0.015,-0.015
0,-2.25,-0.015,0.015,-0.015
-1.5,-1.5,-0.015,0.015,-0.015
-0.75,-1.5,-0.015,0.015,-0.015
0,-1.5,-0.015,0.015,-0.015
0.75,-1.5,-0.015,0.015,-0.015
-1.5,-0.75,-0.015,0.015,-0.015
-0.75,-0.75,-0.015,0.015,-0.015
0,-0.75,-0.015,0.015,-0.015
-1.5,0,-0.015,0.015,-0.015
-0.75,0,-0.015,0.015,-0.015
0,0,-0.015,0.015,-0.015
-1.5,0.75,-0.015,0.015,-0.015
-0.75,0.75,-0.015,0.015,-0.015
0,0.75,-0.015,0.015,-0.015
0.75,0.75,-0.015,0.015,-0.015
1.5,0.75,-0.015,0.015,-0.015
-1.5,-2.25,0,0.015,-0.015
-0.75,-2.25,0,0.015,-0.015
0,-2.25,0,0.015,-0.015
-1.5,-1.5,0,0.015,-0.015
-0.75,-1.5,0,0.015,-0.015
0,-1.5,0,0.015,-0.015
0.75,-1.5,0,0.015,-0.015
-1.5,-0.75,0,0.015,-0.015
-0.75,-0.75,0,0.015,-0.015
0,-0.75,0,0.015,-0.015
0.75,-0.75,0,0.015,-0.015
1.5,-0.75,0,0.015,-0.015
-1.5,0,0,0.015,-0.015
-0.75,0,0,0.015,-0.015
0,0,0,0.015,-0.015
0.75,0,0,0.015,-0.015
1.5,0,0,0.015,-0.015
-1.5,0.75,0,0.015,-0.015
-0.75,0.75,0,0.015,-0.015
0,0.75,0,0.015,-0.015
-1.5,-2.25,0.015,0.015,-0.015
-0.75,-2.25,0.015,0.015,-0.015
0,-2.25,0.015,0.015,-0.015
-1.5,-1.5,0.015,0.015,-0.015
-0.75,-1.5,0.015,0.015,-0.015
0,-1.5,0.015,0.015,-0.015
-1.5,-0.75,0.015,0.015,-0.015
-0.75,-0.75,0.015,0.015,-0.015
0,-0.75,0.015,0.015,-0.015
0.75,-0.75,0.015,0.015,-0.015
-1.5,0,0.015,0.015,-0.015
-0.75,0,0.015,0.015,-0.015
0,0,0.015,0.015,-0.015
0.75,0,0.015,0.015,-0.015
-1.5,-2.25,-0.015,0.03,-0.015
1.5,-1.5,-0.015,0.03,-0.015
-0.75,-0.75,-0.015,0.03,-0.015
-1.5,0,-0.015,0.03,-0.015
-0.75,0,-0.015,0.03,-0.015
0,0,-0.015,0.03,-0.015
0.75,-2.25,0,0.03,-0.015
-1.5,-1.5,0,0.03,-0.015
-0.75,-1.5,0,0.03,-0.015
0,-1.5,0,0.03,-0.015
-1.5,-0.75,0,0.03,-0.015
-0.75,-0.75,0,0.03,-0.015
0,-0.75,0,0.03,-0.015
-1.5,0,0,0.03,-0.015
-0.75,0,0,0.03,-0.015
0,0,0,0.03,-0.015
0.75,0,0,0.03,-0.015
1.5,0,0,0.03,-0.015
-1.5,-1.5,0.015,0.03,-0.015
-1.5,-0.75,0.015,0.03,-0.015
-0.75,-0.75,0.015,0.03,-0.015
-1.5,-2.25,-0.015,-0.06,0
-0.75,-2.25,-0.015,-0.06,0
0,-2.25,-0.015,-0.06,0
0.75,-2.25,-0.015,-0.06,0
1.5,-2.25,-0.015,-0.06,0
-1.5,-1.5,-0.015,-0.06,0
-1.5,-2.25,0,-0.06,0
-0.75,-2.25,0,-0.06,0
0,-2.25,0,-0.06,0
0.75,-2.25,0,-0.06,0
1.5,-2.25,0,-0.06,0
-1.5,-1.5,0,-0.06,0
-0.75,-1.5,0,-0.06,0
0,-1.5,0,-0.06,0
1.5,-1.5,0,-0.06,0
0.75,0,0,-0.06,0
-1.5,-3,0.015,-0.06,0
-0.75,-3,0.015,-0.06,0
0,-3,0.015,-0.06,0
-1.5,-2.25,0.015,-0.06,0
-0.75,-2.25,0.015,-0.06,0
0,-2.25,0.015,-0.06,0
0.75,-2.25,0.015,-0.06,0
1.5,-2.25,0.015,-0.06,0
-1.5,-1.5,0.015,-0.06,0
-0.75,-1.5,0.015,-0.06,0
0,-1.5,0.015,-0.06,0
-1.5,-2.25,-0.015,-0.045,0
-0.75,-2.25,-0.015,-0.045,0
0,-2.25,-0.015,-0.045,0
-1.5,-1.5,-0.015,-0.045,0
-0.75,-1.5,-0.015,-0.045,0
0,-1.5,-0.015,-0.045,0
0.75,-1.5,-0.015,-0.045,0
1.5,-1.5,-0.015,-0.045,0
-1.5,-0.75,-0.015,-0.045,0
-0.75,-0.75,-0.015,-0.045,0
0,-0.75,-0.015,-0.045,0
0.75,-0.75,-0.015,-0.045,0
1.5,-0.75,-0.015,-0.045,0
-1.5,0,-0.015,-0.045,0
-0.75,0,-0.015,-0.045,0
0,0,-0.015,-0.045,0
0.75,0,-0.015,-0.045,0
-1.5,-2.25,0,-0.045,0
-0.75,-2.25,0,-0.045,0
0,-2.25,0,-0.045,0
-1.5,-1.5,0,-0.045,0
-0.75,-1.5,0,-0.045,0
0,-1.5,0,-0.045,0
0.75,-1.5,0,-0.045,0
1.5,-1.5,0,-0.045,0
-1.5,-0.75,0,-0.045,0
-0.75,-0.75,0,-0.045,0
0,-0.75,0,-0.045,0
0.75,-0.75,0,-0.045,0
-2.25,0,0,-0.045,0
-1.5,0,0,-0.045,0
-0.75,0,0,-0.045,0
0,0,0,-0.045,0
-1.5,-3,0.015,-0.045,0
-0.75,-3,0.015,-0.045,0
0,-3,0.015,-0.045,0
-0.75,-2.25,0.015,-0.045,0
0,-2.25,0.015,-0.045,0
0.75,-2.25,0.015,-0.045,0
1.5,-2.25,0.015,-0.045,0
-1.5,-1.5,0.015,-0.045,0
-0.75,-1.5,0.015,-0.045,0
0,-1.5,0.015,-0.045,0
0.75,-1.5,0.015,-0.045,0
1.5,-1.5,0.015,-0.045,0
-1.5,-0.75,0.015,-0.045,0
-0.75,-0.75,0.015,-0.045,0
0,-0.75,0.015,-0.045,0
0.75,-0.75,0.015,-0.045,0
-1.5,-2.25,-0.015,-0.03,0
-0.75,-2.25,-0.015,-0.03,0
0,-2.25,-0.015,-0.03,0
-1.5,-1.5,-0.015,-0.03,0
-0.75,-1.5,-0.015,-0.03,0
0,-1.5,-0.015,-0.03,0
0.75,-1.5,-0.015,-0.03,0
-1.5,-0.75,-0.015,-0.03,0
-0.75,-0.75,-0.015,-0.03,0
0,-0.75,-0.015,-0.03,0
0.75,-0.75,-0.015,-0.03,0
-1.5,0,-0.015,-0.03,0
-0.75,0,-0.015,-0.03,0
0,0,-0.015,-0.03,0
0.75,0,-0.015,-0.03,0
-1.5,-2.25,0,-0.03,0
-0.75,-2.25,0,-0.03,0
0,-2.25,0,-0.03,0
-1.5,-1.5,0,-0.03,0
-0.75,-1.5,0,-0.03,0
0,-1.5,0,-0.03,0
0.75,-1.5,0,-0.03,0
-1.5,-0.75,0,-0.03,0
-0.75,-0.75,0,-0.03,0
0,-0.75,0,-0.03,0
0.75,-0.75,0,-0.03,0
-1.5,0,0,-0.03,0
-0.75,0,0,-0.03,0
0,0,0,-0.03,0
-1.5,-3,0.015,-0.03,0
-0.75,-3,0.015,-0.03,0
0,-3,0.015,-0.03,0
-1.5,-2.25,0.015,-0.03,0
-0.75,-2.25,0.015,-0.03,0
0,-2.25,0.015,-0.03,0
0.75,-2.25,0.015,-0.03,0
-1.5,-1.5,0.015,-0.03,0
-0.75,-1.5,0.015,-0.03,0
0,-1.5,0.015,-0.03,0
0.75,-1.5,0.015,-0.03,0
1.5,-1.5,0.015,-0.03,0
-1.5,-0.75,0.015,-0.03,0
-0.75,-0.75,0.015,-0.03,0
0,-0.75,0.015,-0.03,0
-0.75,-3,-0.015,-0.015,0
-1.5,-2.25,-0.015,-0.015,0
-0.75,-2.25,-0.015,-0.015,0
0,-2.25,-0.015,-0.015,0
-1.5,-1.5,-0.015,-0.015,0
-0.75,-1.5,-0.015,-0.015,0
0,-1.5,-0.015,-0.015,0
0.75,-1.5,-0.015,-0.015,0
-1.5,-0.75,-0.015,-0.015,0
-0.75,-0.75,-0.015,-0.015,0
0,-0.75,-0.015,-0.015,0
0.75,-0.75,-0.015,-0.015,0
-1.5,0,-0.015,-0.015,0
-0.75,0,-0.015,-0.015,0
0,0,-0.015,-0.015,0
0.75,0,-0.015,-0.015,0
-1.5,-3,0,-0.015,0
-0.75,-3,0,-0.015,0
-1.5,-2.25,0,-0.015,0
-0.75,-2.25,0,-0.015,0
0,-2.25,0,-0.015,0
-1.5,-1.5,0,-0.015,0
-0.75,-1.5,0,-0.015,0
0,-1.5,0,-0.015,0
0.75,-1.5,0,-0.015,0
1.5,-1.5,0,-0.015,0
-1.5,-0.75,0,-0.015,0
-0.75,-0.75,0,-0.015,0
0,-0.75,0,-0.015,0
0.75,-0.75,0,-0.015,0
-0.75,0,0,-0.015,0
0,0,0,-0.015,0
-1.5,-3,0.015,-0.015,0
-0.75,-3,0.015,-0.015,0
0,-3,0.015,-0.015,0
-1.5,-2.25,0.015,-0.015,0
-0.75,-2.25,0.015,-0.015,0
0,-2.25,0.015,-0.015,0
1.5,-2.25,0.015,-0.015,0
-1.5,-1.5,0.015,-0.015,0
-0.75,-1.5,0.015,-0.015,0
0,-1.5,0.015,-0.015,0
0.75,-1.5,0.015,-0.015,0
1.5,-1.5,0.015,-0.015,0
-1.5,-0.75,0.015,-0.015,0
-0.75,-0.75,0.015,-0.015,0
0,-0.75,0.015,-0.015,0
0.75,-0.75,0.015,-0.015,0
-1.5,-2.25,-0.015,0,0
-0.75,-2.25,-0.015,0,0
0,-2.25,-0.015,0,0
-1.5,-1.5,-0.015,0,0
-0.75,-1.5,-0.015,0,0
0,-1.5,-0.015,0,0
0.75,-1.5,-0.015,0,0
1.5,-1.5,-0.015,0,0
-1.5,-0.75,-0.015,0,0
-0.75,-0.75,-0.015,0,0
0,-0.75,-0.015,0,0
0.75,-0.75,-0.015,0,0
1.5,-0.75,-0.015,0,0
-1.5,0,-0.015,0,0
-0.75,0,-0.015,0,0
0,0,-0.015,0,0
-0.75,-3,0,0,0
-1.5,-2.25,0,0,0
-0.75,-2.25,0,0,0
0,-2.25,0,0,0
-1.5,-1.5,0,0,0
-0.75,-1.5,0,0,0
0,-1.5,0,0,0
0.75,-1.5,0,0,0
1.5,-1.5,0,0,0
-1.5,-0.75,0,0,0
-0.75,-0.75,0,0,0
0,-0.75,0,0,0
0.75,-0.75,0,0,0
1.5,-0.75,0,0,0
-1.5,0,0,0,0
-0.75,0,0,0,0
-1.5,-3,0.015,0,0
-0.75,-3,0.015,0,0
0,-3,0.015,0,0
-1.5,-2.25,0.015,0,0
-0.75,-2.25,0.015,0,0
0,-2.25,0.015,0,0
-1.5,-1.5,0.015,0,0
-0.75,-1.5,0.015,0,0
0,-1.5,0.015,0,0
0.75,-1.5,0.015,0,0
1.5,-1.5,0.015,0,0
-1.5,-0.75,0.015,0,0
-0.75,-0.75,0.015,0,0
0,-0.75,0.015,0,0
0.75,-0.75,0.015,0,0
-1.5,-3,-0.015,0.015,0
-1.5,-2.25,-0.015,0.015,0
-0.75,-2.25,-0.015,0.015,0
0,-2.25,-0.015,0.015,0
-1.5,-1.5,-0.015,0.015,0
-0.75,-1.5,-0.015,0.015,0
0,-1.5,-0.015,0.015,0
0.75,-1.5,-0.015,0.015,0
1.5,-1.5,-0.015,0.015,0
-1.5,-0.75,-0.015,0.015,0
-0.75,-0.75,-0.015,0.015,0
0,-0.75,-0.015,0.015,0
0.75,-0.75,-0.015,0.015,0
1.5,-0.75,-0.015,0.015,0
-1.5,0,-0.015,0.015,0
-0.75,0,-0.015,0.015,0
0,0,-0.015,0.015,0
0.75,0,-0.015,0.015,0
1.5,0,-0.015,0.015,0
-1.5,-3,0,0.015,0
-0.75,-3,0,0.015,0
-2.25,-2.25,0,0.015,0
-1.5,-2.25,0,0.015,0
-0.75,-2.25,0,0.015,0
0,-2.25,0,0.015,0
-2.25,-1.5,0,0.015,0
-1.5,-1.5,0,0.015,0
-0.75,-1.5,0,0.015,0
0,-1.5,0,0.015,0
0.75,-1.5,0,0.015,0
-1.5,-0.75,0,0.015,0
-0.75,-0.75,0,0.015,0
0,-0.75,0,0.015,0
0.75,-0.75,0,0.015,0
-1.5,0,0,0.015,0
-0.75,0,0,0.015,0
0,0,0,0.015,0
-2.25,-3,0.015,0.015,0
-1.5,-3,0.015,0.015,0
-0.75,-3,0.015,0.015,0
0,-3,0.015,0.015,0
-2.25,-2.25,0.015,0.015,0
-1.5,-2.25,0.015,0.015,0
-0.75,-2.25,0.015,0.015,0
0,-2.25,0.015,0.015,0
0.75,-2.25,0.015,0.015,0
-2.25,-1.5,0.015,0.015,0
-1.5,-1.5,0.015,0.015,0
-0.75,-1.5,0.015,0.015,0
0,-1.5,0.015,0.015,0
0.75,-1.5,0.015,0.015,0
1.5,-1.5,0.015,0.015,0
-2.25,-0.75,0.015,0.015,0
-1.5,-0.75,0.015,0.015,0
-0.75,-0.75,0.015,0.015,0
0,-0.75,0.015,0.015,0
0.75,-0.75,0.015,0.015,0
0,0,0.015,0.015,0
-1.5,-0.75,-0.015,0.03,0
-0.75,-0.75,-0.015,0.03,0
-1.5,0,-0.015,0.03,0
-0.75,0,-0.015,0.03,0
0,0,-0.015,0.03,0
0.75,0,-0.015,0.03,0
1.5,0,-0.015,0.03,0
-2.25,-3,0,0.03,0
-1.5,-2.25,0,0.03,0
-2.25,-1.5,0,0.03,0
-1.5,-1.5,0,0.03,0
-0.75,-1.5,0,0.03,0
0,-1.5,0,0.03,0
1.5,-1.5,0,0.03,0
-1.5,-0.75,0,0.03,0
-0.75,-0.75,0,0.03,0
0,-0.75,0,0.03,0
0.75,-0.75,0,0.03,0
1.5,-0.75,0,0.03,0
-2.25,-1.5,0.015,0.03,0
-1.5,-1.5,0.015,0.03,0
-0.75,-1.5,0.015,0.03,0
0,-1.5,0.015,0.03,0
-2.25,-0.75,0.015,0.03,0
-1.5,-0.75,0.015,0.03,0
-0.75,-0.75,0.015,0.03,0
0,-0.75,0.015,0.03,0
0.75,-0.75,0.015,0.03,0
1.5,-0.75,0.015,0.03,0
-2.25,-0.75,0.015,0.045,0
-1.5,-2.25,-0.015,-0.06,0.015
-0.75,-2.25,-0.015,-0.06,0.015
0,-2.25,-0.015,-0.06,0.015
0.75,-2.25,-0.015,-0.06,0.015
-1.5,-1.5,-0.015,-0.06,0.015
-0.75,-1.5,-0.015,-0.06,0.015
0.75,-1.5,-0.015,-0.06,0.015
-0.75,-2.25,0,-0.06,0.015
-1.5,-1.5,0,-0.06,0.015
-0.75,-1.5,0,-0.06,0.015
0,-1.5,0,-0.06,0.015
0.75,-1.5,0,-0.06,0.015
-1.5,-2.25,0.015,-0.06,0.015
-0.75,-2.25,0.015,-0.06,0.015
0,-2.25,0.015,-0.06,0.015
0.75,-2.25,0.015,-0.06,0.015
-1.5,-1.5,0.015,-0.06,0.015
-0.75,-1.5,0.015,-0.06,0.015
0,-1.5,0.015,-0.06,0.015
0.75,-1.5,0.015,-0.06,0.015
-1.5,-2.25,-0.015,-0.045,0.015
-0.75,-2.25,-0.015,-0.045,0.015
-1.5,-1.5,-0.015,-0.045,0.015
-0.75,-1.5,-0.015,-0.045,0.015
0,-1.5,-0.015,-0.045,0.015
0.75,-1.5,-0.015,-0.045,0.015
-1.5,-0.75,-0.015,-0.045,0.015
-0.75,-0.75,-0.015,-0.045,0.015
0,-0.75,-0.015,-0.045,0.015
-1.5,0,-0.015,-0.045,0.015
-0.75,0,-0.015,-0.045,0.015
0,0,-0.015,-0.045,0.015
-1.5,-3,0,-0.045,0.015
-0.75,-2.25,0,-0.045,0.015
0,-2.25,0,-0.045,0.015
-1.5,-1.5,0,-0.045,0.015
-0.75,-1.5,0,-0.045,0.015
0,-1.5,0,-0.045,0.015
0.75,-1.5,0,-0.045,0.015
-1.5,-0.75,0,-0.045,0.015
-0.75,-0.75,0,-0.045,0.015
0,-0.75,0,-0.045,0.015
-1.5,0,0,-0.045,0.015
-0.75,0,0,-0.045,0.015
0,0,0,-0.045,0.015
-1.5,-2.25,0.015,-0.045,0.015
-0.75,-2.25,0.015,-0.045,0.015
0,-2.25,0.015,-0.045,0.015
-1.5,-1.5,0.015,-0.045,0.015
-0.75,-1.5,0.015,-0.045,0.015
0,-1.5,0.015,-0.045,0.015
0.75,-1.5,0.015,-0.045,0.015
-1.5,-0.75,0.015,-0.045,0.015
-0.75,-0.75,0.015,-0.045,0.015
0,-0.75,0.015,-0.045,0.015
-1.5,-2.25,-0.015,-0.03,0.015
-0.75,-2.25,-0.015,-0.03,0.015
-1.5,-1.5,-0.015,-0.03,0.015
-0.75,-1.5,-0.015,-0.03,0.015
0,-1.5,-0.015,-0.03,0.015
-1.5,-0.75,-0.015,-0.03,0.015
-0.75,-0.75,-0.015,-0.03,0.015
0,-0.75,-0.015,-0.03,0.015
-0.75,-2.25,0,-0.03,0.015
0,-2.25,0,-0.03,0.015
-1.5,-1.5,0,-0.03,0.015
-0.75,-1.5,0,-0.03,0.015
0,-1.5,0,-0.03,0.015
-1.5,-0.75,0,-0.03,0.015
-0.75,-0.75,0,-0.03,0.015
0,-0.75,0,-0.03,0.015
-1.5,0,0,-0.03,0.015
-0.75,0,0,-0.03,0.015
0,0,0,-0.03,0.015
-1.5,-2.25,0.015,-0.03,0.015
-0.75,-2.25,0.015,-0.03,0.015
0,-2.25,0.015,-0.03,0.015
-1.5,-1.5,0.015,-0.03,0.015
-0.75,-1.5,0.015,-0.03,0.015
0,-1.5,0.015,-0.03,0.015
0.75,-1.5,0.015,-0.03,0.015
-1.5,-0.75,0.015,-0.03,0.015
-0.75,-0.75,0.015,-0.03,0.015
0,-0.75,0.015,-0.03,0.015
-1.5,-3,-0.015,-0.015,0.015
-0.75,-3,-0.015,-0.015,0.015
-1.5,-2.25,-0.015,-0.015,0.015
-0.75,-2.25,-0.015,-0.015,0.015
0,-2.25,-0.015,-0.015,0.015
-1.5,-1.5,-0.015,-0.015,0.015
-0.75,-1.5,-0.015,-0.015,0.015
0,-1.5,-0.015,-0.015,0.015
-1.5,-0.75,-0.015,-0.015,0.015
-0.75,-0.75,-0.015,-0.015,0.015
0,-0.75,-0.015,-0.015,0.015
-1.5,-2.25,0,-0.015,0.015
-0.75,-2.25,0,-0.015,0.015
0,-2.25,0,-0.015,0.015
-1.5,-1.5,0,-0.015,0.015
-0.75,-1.5,0,-0.015,0.015
0,-1.5,0,-0.015,0.015
0.75,-1.5,0,-0.015,0.015
-1.5,-0.75,0,-0.015,0.015
-0.75,-0.75,0,-0.015,0.015
0,-0.75,0,-0.015,0.015
-1.5,0,0,-0.015,0.015
-0.75,0,0,-0.015,0.015
0,0,0,-0.015,0.015
-1.5,-3,0.015,-0.015,0.015
-0.75,-3,0.015,-0.015,0.015
0,-3,0.015,-0.015,0.015
-1.5,-2.25,0.015,-0.015,0.015
-0.75,-2.25,0.015,-0.015,0.015
0,-2.25,0.015,-0.015,0.015
-1.5,-1.5,0.015,-0.015,0.015
-0.75,-1.5,0.015,-0.015,0.015
0,-1.5,0.015,-0.015,0.015
0.75,-1.5,0.015,-0.015,0.015
-1.5,-0.75,0.015,-0.015,0.015
-0.75,-0.75,0.015,-0.015,0.015
-1.5,-3,-0.015,0,0.015
-0.75,-3,-0.015,0,0.015
0,-3,-0.015,0,0.015
-1.5,-2.25,-0.015,0,0.015
-0.75,-2.25,-0.015,0,0.015
0,-2.25,-0.015,0,0.015
-1.5,-1.5,-0.015,0,0.015
-0.75,-1.5,-0.015,0,0.015
0,-1.5,-0.015,0,0.015
0.75,-1.5,-0.015,0,0.015
-1.5,-0.75,-0.015,0,0.015
-0.75,-0.75,-0.015,0,0.015
0,-0.75,-0.015,0,0.015
-1.5,-2.25,0,0,0.015
-0.75,-2.25,0,0,0.015
0,-2.25,0,0,0.015
-1.5,-1.5,0,0,0.015
-0.75,-1.5,0,0,0.015
0,-1.5,0,0,0.015
0.75,-1.5,0,0,0.015
-1.5,-0.75,0,0,0.015
-0.75,-0.75,0,0,0.015
0,-0.75,0,0,0.015
0.75,-0.75,0,0,0.015
-1.5,0,0,0,0.015
-0.75,0,0,0,0.015
-1.5,-3,0.015,0,0.015
-0.75,-3,0.015,0,0.015
0,-3,0.015,0,0.015
-2.25,-2.25,0.015,0,0.015
-1.5,-2.25,0.015,0,0.015
-0.75,-2.25,0.015,0,0.015
0,-2.25,0.015,0,0.015
-1.5,-1.5,0.015,0,0.015
-0.75,-1.5,0.015,0,0.015
0,-1.5,0.015,0,0.015
0.75,-1.5,0.015,0,0.015
-2.25,-0.75,0.015,0,0.015
-1.5,-0.75,0.015,0,0.015
-0.75,-0.75,0.015,0,0.015
0,-0.75,0.015,0,0.015
0.75,-0.75,0.015,0,0.015
-2.25,-3,-0.015,0.015,0.015
-1.5,-2.25,-0.015,0.015,0.015
-0.75,-2.25,-0.015,0.015,0.015
0,-2.25,-0.015,0.015,0.015
-1.5,-1.5,-0.015,0.015,0.015
-0.75,-1.5,-0.015,0.015,0.015
0,-1.5,-0.015,0.015,0.015
-1.5,-0.75,-0.015,0.015,0.015
-0.75,-0.75,-0.015,0.015,0.015
0,-0.75,-0.015,0.015,0.015
0.75,-0.75,-0.015,0.015,0.015
-2.25,-2.25,0,0.015,0.015
-1.5,-2.25,0,0.015,0.015
-0.75,-2.25,0,0.015,0.015
0,-2.25,0,0.015,0.015
-2.25,-1.5,0,0.015,0.015
-1.5,-1.5,0,0.015,0.015
-0.75,-1.5,0,0.015,0.015
0,-1.5,0,0.015,0.015
0.75,-1.5,0,0.015,0.015
-2.25,-0.75,0,0.015,0.015
-1.5,-0.75,0,0.015,0.015
-0.75,-0.75,0,0.015,0.015
0,-0.75,0,0.015,0.015
0.75,-0.75,0,0.015,0.015
-2.25,0,0,0.015,0.015
-1.5,0,0,0.015,0.015
-0.75,0,0,0.015,0.015
-2.25,-3,0.015,0.015,0.015
-1.5,-3,0.015,0.015,0.015
-0.75,-3,0.015,0.015,0.015
0,-3,0.015,0.015,0.015
-2.25,-2.25,0.015,0.015,0.015
-1.5,-2.25,0.015,0.015,0.015
-0.75,-2.25,0.015,0.015,0.015
0,-2.25,0.015,0.015,0.015
-2.25,-1.5,0.015,0.015,0.015
-1.5,-1.5,0.015,0.015,0.015
-0.75,-1.5,0.015,0.015,0.015
0,-1.5,0.015,0.015,0.015
0.75,-1.5,0.015,0.015,0.015
-2.25,-0.75,0.015,0.015,0.015
-1.5,-0.75,0.015,0.015,0.015
-0.75,-0.75,0.015,0.015,0.015
0,-0.75,0.015,0.015,0.015
0.75,-0.75,0.015,0.015,0.015
-1.5,0,0.015,0.015,0.015
-0.75,0,0.015,0.015,0.015
0.75,-2.25,-0.015,0.03,0.015
-1.5,-1.5,-0.015,0.03,0.015
-0.75,-1.5,-0.015,0.03,0.015
-1.5,-0.75,-0.015,0.03,0.015
-0.75,-0.75,-0.015,0.03,0.015
0,-0.75,-0.015,0.03,0.015
-2.25,-2.25,0,0.03,0.015
-1.5,-2.25,0,0.03,0.015
0.75,-2.25,0,0.03,0.015
-2.25,-1.5,0,0.03,0.015
-1.5,-1.5,0,0.03,0.015
-0.75,-1.5,0,0.03,0.015
0,-1.5,0,0.03,0.015
0.75,-1.5,0,0.03,0.015
-2.25,-0.75,0,0.03,0.015
-1.5,-0.75,0,0.03,0.015
-0.75,-0.75,0,0.03,0.015
0,-0.75,0,0.03,0.015
0.75,-2.25,0.015,0.03,0.015
-2.25,-1.5,0.015,0.03,0.015
-1.5,-1.5,0.015,0.03,0.015
-0.75,-1.5,0.015,0.03,0.015
0,-1.5,0.015,0.03,0.015
0.75,-1.5,0.015,0.03,0.015
-2.25,-0.75,0.015,0.03,0.015
-1.5,-0.75,0.015,0.03,0.015
-0.75,-0.75,0.015,0.03,0.015
0,-0.75,0.015,0.03,0.015
0.75,-0.75,0.015,0.03,0.015
-2.25,-0.75,0,0.045,0.015
-1.5,-3,-0.015,-0.06,0.03
-0.75,-3,-0.015,-0.06,0.03
0,-3,-0.015,-0.06,0.03
-1.5,-2.25,-0.015,-0.06,0.03
-0.75,-2.25,-0.015,-0.06,0.03
0,-2.25,-0.015,-0.06,0.03
-1.5,-1.5,-0.015,-0.06,0.03
-0.75,-1.5,-0.015,-0.06,0.03
-1.5,-2.25,0,-0.06,0.03
-0.75,-2.25,0,-0.06,0.03
0,-2.25,0,-0.06,0.03
-1.5,-1.5,0,-0.06,0.03
-0.75,-1.5,0,-0.06,0.03
0,-1.5,0,-0.06,0.03
-1.5,-1.5,0.015,-0.06,0.03
-0.75,-1.5,0.015,-0.06,0.03
0,-1.5,0.015,-0.06,0.03
0.75,-1.5,0.015,-0.06,0.03
-1.5,-3,-0.015,-0.045,0.03
-0.75,-3,-0.015,-0.045,0.03
-1.5,-2.25,-0.015,-0.045,0.03
-0.75,-2.25,-0.015,-0.045,0.03
0,-2.25,-0.015,-0.045,0.03
-1.5,-1.5,-0.015,-0.045,0.03
-0.75,-1.5,-0.015,-0.045,0.03
0,-1.5,-0.015,-0.045,0.03
-1.5,-0.75,-0.015,-0.045,0.03
-0.75,-0.75,-0.015,-0.045,0.03
0,-0.75,-0.015,-0.045,0.03
-1.5,-2.25,0,-0.045,0.03
-0.75,-2.25,0,-0.045,0.03
0,-2.25,0,-0.045,0.03
-1.5,-1.5,0,-0.045,0.03
-0.75,-1.5,0,-0.045,0.03
0,-1.5,0,-0.045,0.03
-1.5,-0.75,0,-0.045,0.03
-0.75,-0.75,0,-0.045,0.03
0,-0.75,0,-0.045,0.03
0,-2.25,0.015,-0.045,0.03
-1.5,-1.5,0.015,-0.045,0.03
-0.75,-1.5,0.015,-0.045,0.03
0,-1.5,0.015,-0.045,0.03
-1.5,-0.75,0.015,-0.045,0.03
-0.75,-0.75,0.015,-0.045,0.03
0,-0.75,0.015,-0.045,0.03
-1.5,0,0.015,-0.045,0.03
-0.75,0,0.015,-0.045,0.03
0,0,0.015,-0.045,0.03
-1.5,-3,-0.015,-0.03,0.03
-0.75,-3,-0.015,-0.03,0.03
-1.5,-2.25,-0.015,-0.03,0.03
-0.75,-2.25,-0.015,-0.03,0.03
-1.5,-1.5,-0.015,-0.03,0.03
-0.75,-1.5,-0.015,-0.03,0.03
-1.5,-0.75,-0.015,-0.03,0.03
-0.75,-0.75,-0.015,-0.03,0.03
0,-0.75,-0.015,-0.03,0.03
-0.75,-2.25,0,-0.03,0.03
-1.5,-1.5,0,-0.03,0.03
-0.75,-1.5,0,-0.03,0.03
0,-1.5,0,-0.03,0.03
-1.5,-0.75,0,-0.03,0.03
-0.75,-0.75,0,-0.03,0.03
0,-0.75,0,-0.03,0.03
-1.5,0,0,-0.03,0.03
-0.75,0,0,-0.03,0.03
0,0,0,-0.03,0.03
-0.75,-2.25,0.015,-0.03,0.03
0,-2.25,0.015,-0.03,0.03
-1.5,-1.5,0.015,-0.03,0.03
-0.75,-1.5,0.015,-0.03,0.03
0,-1.5,0.015,-0.03,0.03
-1.5,-0.75,0.015,-0.03,0.03
-0.75,-0.75,0.015,-0.03,0.03
0,-0.75,0.015,-0.03,0.03
-1.5,0,0.015,-0.03,0.03
-0.75,0,0.015,-0.03,0.03
-1.5,-3,-0.015,-0.015,0.03
-0.75,-3,-0.015,-0.015,0.03
-1.5,-2.25,-0.015,-0.015,0.03
-0.75,-2.25,-0.015,-0.015,0.03
0,-2.25,-0.015,-0.015,0.03
-1.5,-1.5,-0.015,-0.015,0.03
-0.75,-1.5,-0.015,-0.015,0.03
0,-1.5,-0.015,-0.015,0.03
-1.5,-0.75,-0.015,-0.015,0.03
-0.75,-0.75,-0.015,-0.015,0.03
0,-0.75,-0.015,-0.015,0.03
-1.5,-2.25,0,-0.015,0.03
-0.75,-2.25,0,-0.015,0.03
0,-2.25,0,-0.015,0.03
-1.5,-1.5,0,-0.015,0.03
-0.75,-1.5,0,-0.015,0.03
0,-1.5,0,-0.015,0.03
-1.5,-0.75,0,-0.015,0.03
-0.75,-0.75,0,-0.015,0.03
0,-0.75,0,-0.015,0.03
-1.5,0,0,-0.015,0.03
-0.75,0,0,-0.015,0.03
0,0,0,-0.015,0.03
-1.5,-2.25,0.015,-0.015,0.03
-0.75,-2.25,0.015,-0.015,0.03
0,-2.25,0.015,-0.015,0.03
-1.5,-1.5,0.015,-0.015,0.03
-0.75,-1.5,0.015,-0.015,0.03
0,-1.5,0.015,-0.015,0.03
0.75,-1.5,0.015,-0.015,0.03
-1.5,-0.75,0.015,-0.015,0.03
-0.75,-0.75,0.015,-0.015,0.03
0,-0.75,0.015,-0.015,0.03
-1.5,0,0.015,-0.015,0.03
-0.75,0,0.015,-0.015,0.03
-1.5,-3,-0.015,0,0.03
-0.75,-3,-0.015,0,0.03
0,-3,-0.015,0,0.03
-0.75,-2.25,-0.015,0,0.03
0,-2.25,-0.015,0,0.03
-1.5,-1.5,-0.015,0,0.03
-0.75,-1.5,-0.015,0,0.03
0,-1.5,-0.015,0,0.03
-1.5,-0.75,-0.015,0,0.03
-0.75,-0.75,-0.015,0,0.03
0,-0.75,-0.015,0,0.03
-1.5,-2.25,0,0,0.03
0,-2.25,0,0,0.03
0.75,-2.25,0,0,0.03
-1.5,-1.5,0,0,0.03
-0.75,-1.5,0,0,0.03
0,-1.5,0,0,0.03
0.75,-1.5,0,0,0.03
-1.5,-0.75,0,0,0.03
-0.75,-0.75,0,0,0.03
0,-0.75,0,0,0.03
-1.5,0,0,0,0.03
-0.75,0,0,0,0.03
0,0,0,0,0.03
-2.25,-2.25,0.015,0,0.03
-1.5,-2.25,0.015,0,0.03
-0.75,-2.25,0.015,0,0.03
0,-2.25,0.015,0,0.03
-1.5,-1.5,0.015,0,0.03
-0.75,-1.5,0.015,0,0.03
0,-1.5,0.015,0,0.03
-1.5,-0.75,0.015,0,0.03
-0.75,-0.75,0.015,0,0.03
0,-0.75,0.015,0,0.03
-1.5,0,0.015,0,0.03
-0.75,0,0.015,0,0.03
0,0,0.015,0,0.03
-2.25,-0.75,0.03,0,0.03
-1.5,-3,-0.015,0.015,0.03
-0.75,-3,-0.015,0.015,0.03
0,-3,-0.015,0.015,0.03
-1.5,-2.25,-0.015,0.015,0.03
-0.75,-2.25,-0.015,0.015,0.03
0,-2.25,-0.015,0.015,0.03
-1.5,-1.5,-0.015,0.015,0.03
-0.75,-1.5,-0.015,0.015,0.03
0,-1.5,-0.015,0.015,0.03
-1.5,-0.75,-0.015,0.015,0.03
-0.75,-0.75,-0.015,0.015,0.03
0,-0.75,-0.015,0.015,0.03
-1.5,0,-0.015,0.015,0.03
-0.75,0,-0.015,0.015,0.03
0,0,-0.015,0.015,0.03
-1.5,-1.5,0,0.015,0.03
-0.75,-1.5,0,0.015,0.03
0,-1.5,0,0.015,0.03
0.75,-1.5,0,0.015,0.03
-1.5,-0.75,0,0.015,0.03
-0.75,-0.75,0,0.015,0.03
0,-0.75,0,0.015,0.03
0.75,-0.75,0,0.015,0.03
-1.5,0,0,0.015,0.03
-0.75,0,0,0.015,0.03
0,0,0,0.015,0.03
-2.25,-2.25,0.015,0.015,0.03
-1.5,-2.25,0.015,0.015,0.03
-0.75,-2.25,0.015,0.015,0.03
0,-2.25,0.015,0.015,0.03
-1.5,-1.5,0.015,0.015,0.03
-0.75,-1.5,0.015,0.015,0.03
0,-1.5,0.015,0.015,0.03
0.75,-1.5,0.015,0.015,0.03
-2.25,-0.75,0.015,0.015,0.03
-1.5,-0.75,0.015,0.015,0.03
-0.75,-0.75,0.015,0.015,0.03
0,-0.75,0.015,0.015,0.03
0.75,-0.75,0.015,0.015,0.03
-2.25,0,0.015,0.015,0.03
-1.5,0,0.015,0.015,0.03
-0.75,0,0.015,0.015,0.03
0,0,0.015,0.015,0.03
-1.5,-2.25,-0.015,0.03,0.03
-0.75,-2.25,-0.015,0.03,0.03
-1.5,-1.5,-0.015,0.03,0.03
-0.75,-1.5,-0.015,0.03,0.03
0,-1.5,-0.015,0.03,0.03
-1.5,-0.75,-0.015,0.03,0.03
-0.75,-0.75,-0.015,0.03,0.03
0,-0.75,-0.015,0.03,0.03
0.75,-0.75,-0.015,0.03,0.03
-1.5,0,-0.015,0.03,0.03
-0.75,0,-0.015,0.03,0.03
0,0,-0.015,0.03,0.03
-1.5,-1.5,0,0.03,0.03
-0.75,-1.5,0,0.03,0.03
0,-1.5,0,0.03,0.03
0.75,-1.5,0,0.03,0.03
-1.5,-0.75,0,0.03,0.03
-0.75,-0.75,0,0.03,0.03
0,-0.75,0,0.03,0.03
0.75,-0.75,0,0.03,0.03
-1.5,0,0,0.03,0.03
-0.75,0,0,0.03,0.03
0,0,0,0.03,0.03
-2.25,-2.25,0.015,0.03,0.03
-1.5,-2.25,0.015,0.03,0.03
-0.75,-2.25,0.015,0.03,0.03
0,-2.25,0.015,0.03,0.03
-2.25,-1.5,0.015,0.03,0.03
-1.5,-1.5,0.015,0.03,0.03
-0.75,-1.5,0.015,0.03,0.03
0,-1.5,0.015,0.03,0.03
0.75,-1.5,0.015,0.03,0.03
-2.25,-0.75,0.015,0.03,0.03
-1.5,-0.75,0.015,0.03,0.03
-0.75,-0.75,0.015,0.03,0.03
0,-0.75,0.015,0.03,0.03
-2.25,0,0.015,0.03,0.03
-1.5,0,0.015,0.03,0.03
-0.75,0,0.015,0.03,0.03
0,0,0.015,0.03,0.03
-2.25,-1.5,0.03,0.03,0.03
-0.75,-2.25,0,0.045,0.03
-1.5,0,0,0.045,0.03
-0.75,0,0,0.045,0.03
0,0,0,0.045,0.03
-2.25,0,0.015,0.045,0.03
0,-2.25,-0.015,-0.06,0.045
-1.5,-2.25,0,-0.06,0.045
-0.75,-2.25,0,-0.06,0.045
0,-2.25,0,-0.06,0.045
-0.75,-2.25,0.015,-0.06,0.045
-2.25,-3,-0.03,-0.045,0.045
-1.5,-3,-0.015,-0.045,0.045
-0.75,-3,-0.015,-0.045,0.045
-1.5,-2.25,-0.015,-0.045,0.045
-0.75,-2.25,-0.015,-0.045,0.045
0,-2.25,-0.015,-0.045,0.045
-1.5,-1.5,-0.015,-0.045,0.045
-0.75,-1.5,-0.015,-0.045,0.045
0,-1.5,-0.015,-0.045,0.045
-1.5,-0.75,-0.015,-0.045,0.045
-0.75,-0.75,-0.015,-0.045,0.045
0,-0.75,-0.015,-0.045,0.045
-1.5,0,-0.015,-0.045,0.045
-1.5,-2.25,0,-0.045,0.045
-0.75,-2.25,0,-0.045,0.045
0,-2.25,0,-0.045,0.045
-1.5,-1.5,0,-0.045,0.045
-0.75,-1.5,0,-0.045,0.045
0,-1.5,0,-0.045,0.045
-1.5,-0.75,0,-0.045,0.045
-0.75,-0.75,0,-0.045,0.045
0,-0.75,0,-0.045,0.045
-1.5,0,0,-0.045,0.045
-1.5,-2.25,0.015,-0.045,0.045
-0.75,-2.25,0.015,-0.045,0.045
-1.5,-1.5,0.015,-0.045,0.045
-0.75,-1.5,0.015,-0.045,0.045
0,-1.5,0.015,-0.045,0.045
-0.75,-3,-0.015,-0.03,0.045
-1.5,-2.25,-0.015,-0.03,0.045
-0.75,-2.25,-0.015,-0.03,0.045
-1.5,-1.5,-0.015,-0.03,0.045
-0.75,-1.5,-0.015,-0.03,0.045
-1.5,-0.75,-0.015,-0.03,0.045
-0.75,-0.75,-0.015,-0.03,0.045
-0.75,-2.25,0,-0.03,0.045
-1.5,-1.5,0,-0.03,0.045
-0.75,-1.5,0,-0.03,0.045
0,-1.5,0,-0.03,0.045
-1.5,-0.75,0,-0.03,0.045
-0.75,-0.75,0,-0.03,0.045
0,-0.75,0,-0.03,0.045
-1.5,0,0,-0.03,0.045
-0.75,0,0,-0.03,0.045
0,0,0,-0.03,0.045
-1.5,-2.25,0.015,-0.03,0.045
-0.75,-2.25,0.015,-0.03,0.045
0,-2.25,0.015,-0.03,0.045
-1.5,-1.5,0.015,-0.03,0.045
-0.75,-1.5,0.015,-0.03,0.045
0,-1.5,0.015,-0.03,0.045
-1.5,-0.75,0.015,-0.03,0.045
-0.75,-0.75,0.015,-0.03,0.045
0,-0.75,0.015,-0.03,0.045
-1.5,0,0.015,-0.03,0.045
-0.75,0,0.015,-0.03,0.045
0,0,0.015,-0.03,0.045
-1.5,-3,-0.015,-0.015,0.045
-0.75,-3,-0.015,-0.015,0.045
-1.5,-2.25,-0.015,-0.015,0.045
-0.75,-2.25,-0.015,-0.015,0.045
-1.5,-1.5,-0.015,-0.015,0.045
-0.75,-1.5,-0.015,-0.015,0.045
0,-1.5,-0.015,-0.015,0.045
-1.5,-0.75,-0.015,-0.015,0.045
-0.75,-0.75,-0.015,-0.015,0.045
0,-0.75,-0.015,-0.015,0.045
-1.5,0,-0.015,-0.015,0.045
-0.75,0,-0.015,-0.015,0.045
-1.5,-2.25,0,-0.015,0.045
-0.75,-2.25,0,-0.015,0.045
0,-2.25,0,-0.015,0.045
-1.5,-1.5,0,-0.015,0.045
-0.75,-1.5,0,-0.015,0.045
0,-1.5,0,-0.015,0.045
-1.5,-0.75,0,-0.015,0.045
-0.75,-0.75,0,-0.015,0.045
0,-0.75,0,-0.015,0.045
-1.5,0,0,-0.015,0.045
-0.75,0,0,-0.015,0.045
0,0,0,-0.015,0.045
-1.5,-2.25,0.015,-0.015,0.045
-0.75,-2.25,0.015,-0.015,0.045
0,-2.25,0.015,-0.015,0.045
-1.5,-1.5,0.015,-0.015,0.045
-0.75,-1.5,0.015,-0.015,0.045
0,-1.5,0.015,-0.015,0.045
-1.5,-0.75,0.015,-0.015,0.045
-0.75,-0.75,0.015,-0.015,0.045
0,-0.75,0.015,-0.015,0.045
-1.5,0,0.015,-0.015,0.045
-0.75,0,0.015,-0.015,0.045
0,0,0.015,-0.015,0.045
-1.5,-3,-0.015,0,0.045
-0.75,-3,-0.015,0,0.045
-1.5,-2.25,-0.015,0,0.045
-0.75,-2.25,-0.015,0,0.045
-1.5,-1.5,-0.015,0,0.045
-0.75,-1.5,-0.015,0,0.045
0,-1.5,-0.015,0,0.045
-1.5,-0.75,-0.015,0,0.045
-0.75,-0.75,-0.015,0,0.045
0,-0.75,-0.015,0,0.045
-1.5,-2.25,0,0,0.045
-0.75,-2.25,0,0,0.045
0,-2.25,0,0,0.045
-1.5,-1.5,0,0,0.045
-0.75,-1.5,0,0,0.045
0,-1.5,0,0,0.045
-1.5,-0.75,0,0,0.045
-0.75,-0.75,0,0,0.045
0,-0.75,0,0,0.045
-1.5,0,0,0,0.045
-0.75,0,0,0,0.045
0,0,0,0,0.045
-1.5,-2.25,0.015,0,0.045
-0.75,-2.25,0.015,0,0.045
0,-2.25,0.015,0,0.045
-1.5,-1.5,0.015,0,0.045
-0.75,-1.5,0.015,0,0.045
0,-1.5,0.015,0,0.045
-1.5,-0.75,0.015,0,0.045
-0.75,-0.75,0.015,0,0.045
0,-0.75,0.015,0,0.045
0.75,-0.75,0.015,0,0.045
-1.5,0,0.015,0,0.045
-0.75,0,0.015,0,0.045
0,0,0.015,0,0.045
-1.5,-3,-0.015,0.015,0.045
-0.75,-3,-0.015,0.015,0.045
0,-3,-0.015,0.015,0.045
-1.5,-2.25,-0.015,0.015,0.045
-0.75,-2.25,-0.015,0.015,0.045
0,-2.25,-0.015,0.015,0.045
-1.5,-1.5,-0.015,0.015,0.045
-0.75,-1.5,-0.015,0.015,0.045
0,-1.5,-0.015,0.015,0.045
-1.5,-0.75,-0.015,0.015,0.045
-0.75,-0.75,-0.015,0.015,0.045
0,-0.75,-0.015,0.015,0.045
-1.5,0,-0.015,0.015,0.045
-0.75,0,-0.015,0.015,0.045
0,0,-0.015,0.015,0.045
-1.5,-2.25,0,0.015,0.045
-0.75,-2.25,0,0.015,0.045
0,-2.25,0,0.015,0.045
-1.5,-1.5,0,0.015,0.045
-0.75,-1.5,0,0.015,0.045
0,-1.5,0,0.015,0.045
0.75,-1.5,0,0.015,0.045
-1.5,-0.75,0,0.015,0.045
-0.75,-0.75,0,0.015,0.045
0,-0.75,0,0.015,0.045
0.75,-0.75,0,0.015,0.045
-1.5,0,0,0.015,0.045
-0.75,0,0,0.015,0.045
0,0,0,0.015,0.045
-1.5,-2.25,0.015,0.015,0.045
-0.75,-2.25,0.015,0.015,0.045
0,-2.25,0.015,0.015,0.045
-1.5,-1.5,0.015,0.015,0.045
-0.75,-1.5,0.015,0.015,0.045
0,-1.5,0.015,0.015,0.045
0.75,-1.5,0.015,0.015,0.045
-1.5,-0.75,0.015,0.015,0.045
-0.75,-0.75,0.015,0.015,0.045
0,-0.75,0.015,0.015,0.045
0.75,-0.75,0.015,0.015,0.045
-1.5,0,0.015,0.015,0.045
-0.75,0,0.015,0.015,0.045
0,0,0.015,0.015,0.045
0.75,0,0.015,0.015,0.045
-1.5,0.75,0.015,0.015,0.045
-0.75,0.75,0.015,0.015,0.045
0,0.75,0.015,0.015,0.045
-1.5,-2.25,-0.015,0.03,0.045
-0.75,-2.25,-0.015,0.03,0.045
0,-2.25,-0.015,0.03,0.045
-1.5,-1.5,-0.015,0.03,0.045
-0.75,-1.5,-0.015,0.03,0.045
0,-1.5,-0.015,0.03,0.045
-1.5,-0.75,-0.015,0.03,0.045
-0.75,-0.75,-0.015,0.03,0.045
0,-0.75,-0.015,0.03,0.045
-1.5,0,-0.015,0.03,0.045
-0.75,0,-0.015,0.03,0.045
-1.5,-2.25,0,0.03,0.045
-0.75,-2.25,0,0.03,0.045
0,-2.25,0,0.03,0.045
-1.5,-1.5,0,0.03,0.045
-0.75,-1.5,0,0.03,0.045
0,-1.5,0,0.03,0.045
0.75,-1.5,0,0.03,0.045
-1.5,-0.75,0,0.03,0.045
-0.75,-0.75,0,0.03,0.045
0,-0.75,0,0.03,0.045
0.75,-0.75,0,0.03,0.045
-1.5,0,0,0.03,0.045
-0.75,0,0,0.03,0.045
0,0,0,0.03,0.045
0.75,0,0,0.03,0.045
-0.75,0.75,0,0.03,0.045
0,0.75,0,0.03,0.045
-2.25,-2.25,0.015,0.03,0.045
-2.25,-1.5,0.015,0.03,0.045
-1.5,-1.5,0.015,0.03,0.045
-0.75,-1.5,0.015,0.03,0.045
0,-1.5,0.015,0.03,0.045
-2.25,-0.75,0.015,0.03,0.045
-1.5,-0.75,0.015,0.03,0.045
-0.75,-0.75,0.015,0.03,0.045
0,-0.75,0.015,0.03,0.045
0.75,-0.75,0.015,0.03,0.045
-2.25,0,0.015,0.03,0.045
-1.5,0,0.015,0.03,0.045
-0.75,0,0.015,0.03,0.045
0,0,0.015,0.03,0.045
-2.25,0.75,0.015,0.03,0.045
-1.5,0.75,0.015,0.03,0.045
-0.75,0.75,0.015,0.03,0.045
0,0.75,0.015,0.03,0.045
-1.5,0,-0.015,0.045,0.045
0,0,-0.015,0.045,0.045
-1.5,0,0,0.045,0.045
-0.75,0,0,0.045,0.045
0,0,0,0.045,0.045
-2.25,0.75,0.015,0.045,0.045
-1.5,0.75,0.015,0.045,0.045
-0.75,0.75,0.015,0.045,0.045
0,0.75,0.015,0.045,0.045
-1.5,-2.25,0,-0.06,0.06
-0.75,-2.25,-0.015,-0.03,0.06
0,-0.75,-0.015,-0.03,0.06
0,0,-0.015,-0.03,0.06
-1.5,-1.5,0,-0.03,0.06
-0.75,-1.5,0,-0.03,0.06
0,-1.5,0,-0.03,0.06
-0.75,-0.75,0,-0.03,0.06
0,-0.75,0,-0.03,0.06
0,0,0,-0.03,0.06
0,-0.75,0.015,-0.03,0.06
-1.5,-2.25,-0.015,-0.015,0.06
-0.75,-2.25,-0.015,-0.015,0.06
-0.75,-1.5,-0.015,-0.015,0.06
-0.75,-0.75,-0.015,-0.015,0.06
-1.5,-1.5,0,-0.015,0.06
-0.75,-1.5,0,-0.015,0.06
0,-1.5,0,-0.015,0.06
-1.5,-0.75,0,-0.015,0.06
-0.75,-0.75,0,-0.015,0.06
0,-0.75,0,-0.015,0.06
-1.5,0,0,-0.015,0.06
-0.75,0,0,-0.015,0.06
0,0,0,-0.015,0.06
-1.5,0.75,0,-0.015,0.06
-0.75,0.75,0,-0.015,0.06
0,0.75,0,-0.015,0.06
-0.75,-1.5,0.015,-0.015,0.06
0,-0.75,0.015,-0.015,0.06
0,0.75,0.015,-0.015,0.06
-1.5,-2.25,-0.015,0,0.06
-0.75,-2.25,-0.015,0,0.06
-0.75,-1.5,-0.015,0,0.06
-0.75,-0.75,-0.015,0,0.06
-0.75,0,-0.015,0,0.06
-1.5,-2.25,0,0,0.06
-0.75,-2.25,0,0,0.06
0,-2.25,0,0,0.06
-1.5,-1.5,0,0,0.06
-0.75,-1.5,0,0,0.06
0,-1.5,0,0,0.06
-1.5,-0.75,0,0,0.06
-0.75,-0.75,0,0,0.06
0,-0.75,0,0,0.06
-1.5,0,0,0,0.06
-0.75,0,0,0,0.06
0,0,0,0,0.06
-1.5,0.75,0,0,0.06
-0.75,0.75,0,0,0.06
0,0.75,0,0,0.06
-0.75,-1.5,0.015,0,0.06
0,-1.5,0.015,0,0.06
-0.75,-0.75,0.015,0,0.06
0,-0.75,0.015,0,0.06
0,0,0.015,0,0.06
0,0.75,0.015,0,0.06
-1.5,-2.25,-0.015,0.015,0.06
-0.75,-2.25,-0.015,0.015,0.06
-0.75,-1.5,-0.015,0.015,0.06
-0.75,-0.75,-0.015,0.015,0.06
-0.75,0,-0.015,0.015,0.06
-1.5,-1.5,0,0.015,0.06
-0.75,-1.5,0,0.015,0.06
0,-1.5,0,0.015,0.06
-1.5,-0.75,0,0.015,0.06
-0.75,-0.75,0,0.015,0.06
0,-0.75,0,0.015,0.06
-1.5,0,0,0.015,0.06
-0.75,0,0,0.015,0.06
0,0,0,0.015,0.06
-1.5,0.75,0,0.015,0.06
-0.75,0.75,0,0.015,0.06
0,0.75,0,0.015,0.06
-0.75,-1.5,0.015,0.015,0.06
0,-1.5,0.015,0.015,0.06
-0.75,-0.75,0.015,0.015,0.06
0,-0.75,0.015,0.015,0.06
-0.75,0,0.015,0.015,0.06
0,0,0.015,0.015,0.06
0,0.75,0.015,0.015,0.06
-0.75,-2.25,0,0.03,0.06
0.75,-2.25,0,0.03,0.06
-1.5,-1.5,0,0.03,0.06
-0.75,-1.5,0,0.03,0.06
0,-1.5,0,0.03,0.06
-1.5,-0.75,0,0.03,0.06
-0.75,-0.75,0,0.03,0.06
0,-0.75,0,0.03,0.06
-1.5,0,0,0.03,0.06
-0.75,0,0,0.03,0.06
0,0,0,0.03,0.06
0.75,0,0,0.03,0.06
-1.5,0.75,0,0.03,0.06
-0.75,0.75,0,0.03,0.06
0,0.75,0,0.03,0.06
0,0.75,0.015,0.03,0.06
0.75,0,0,0.045,0.06
