35,-35,-30
36,-37,-31
36,-38,-31
37,-40,-31
38,-42,-32
39,-45,-33
41,-49,-34
43,-55,-36
49,-59,-36
49,-62,-35
52,-66,-35
55,-71,-37
55,-75,-40
57,-72,-47
59,-77,-49
66,-77,-46
73,-72,-51
75,-64,-53
80,-60,-51
77,-51,-53
77,-44,-53
72,-42,-42
75,-40,-38
77,-40,-30
79,-38,-28
79,-30,-29
75,-30,-26
69,-31,-20
76,-23,-12
75,-28,-4
76,-31,5
77,-21,7
79,-12,12
77,0,8
74,6,14
72,16,18
64,24,22
60,32,23
52,32,25
44,24,17
40,24,27
35,33,30
34,43,35
29,54,36
26,60,41
27,70,44
26,81,47
20,78,57
17,76,66
19,82,71
8,83,78
7,93,80
-5,96,86
-5,99,85
-13,91,77
-24,98,74
-32,90,66
-36,92,70
-44,84,62
-43,82,59
-42,81,48
-42,81,38
-38,77,37
-35,74,28
-34,69,26
-33,68,24
-28,60,27
-25,52,27
-19,46,23
-20,35,20
